…
We used lubridate to fix dates, as they are given as characters.

library(lubridate)

updated_approval_polllist <- approval_polllist %>% 
  mutate(modeldate = mdy(paste(as.character(modeldate))),
         startdate = mdy(paste(as.character(startdate))),
         enddate= mdy(paste(as.character(enddate))),
         createddate= mdy(paste(as.character(createddate))),
         week= isoweek(enddate))

updated_approval_polllist

## # A tibble: 1,972 x 23
##    president subgroup modeldate  startdate  enddate    pollster grade samplesize
##    <chr>     <chr>    <date>     <date>     <date>     <chr>    <chr>      <dbl>
##  1 Joseph R~ All pol~ 2021-10-21 2021-01-19 2021-01-21 Rasmuss~ B           1500
##  2 Joseph R~ All pol~ 2021-10-21 2021-01-19 2021-01-21 Morning~ B          15000
##  3 Joseph R~ All pol~ 2021-10-21 2021-01-20 2021-01-22 Morning~ B          15000
##  4 Joseph R~ All pol~ 2021-10-21 2021-01-20 2021-01-21 Morning~ B           1993
##  5 Joseph R~ All pol~ 2021-10-21 2021-01-20 2021-01-21 Ipsos    B-          1115
##  6 Joseph R~ All pol~ 2021-10-21 2021-01-20 2021-01-21 YouGov   B+          1516
##  7 Joseph R~ All pol~ 2021-10-21 2021-01-21 2021-01-23 Morning~ B          15000
##  8 Joseph R~ All pol~ 2021-10-21 2021-01-21 2021-01-23 RMG Res~ B-          1200
##  9 Joseph R~ All pol~ 2021-10-21 2021-01-21 2021-01-22 HarrisX  B+           941
## 10 Joseph R~ All pol~ 2021-10-21 2021-01-20 2021-01-24 Rasmuss~ B           1500
## # ... with 1,962 more rows, and 15 more variables: population <chr>,
## #   weight <dbl>, influence <dbl>, approve <dbl>, disapprove <dbl>,
## #   adjusted_approve <dbl>, adjusted_disapprove <dbl>, multiversions <chr>,
## #   tracking <lgl>, url <chr>, poll_id <dbl>, question_id <dbl>,
## #   createddate <date>, timestamp <chr>, week <dbl>
…
