…
updated_bike_2016_2019 <- bike %>% 
  filter (year >2015 & year< 2020) %>% 
  group_by (month) %>% 
  summarise (expected_rental = mean(bikes_hired)) #expected rentals per month

final_bike <- left_join(updated_bike, updated_bike_2016_2019) %>% 
  mutate (excess_rentals= actual_mean_rental - expected_rental,
          up= ifelse(actual_mean_rental > expected_rental, actual_mean_rental, 
                     expected_rental),
          down= ifelse(actual_mean_rental < expected_rental, actual_mean_rental, 
                       expected_rental))
final_bike

## # A tibble: 68 x 7
## # Groups:   month [12]
##    month  year actual_mean_rental expected_rental excess_rentals     up   down
##    <ord> <dbl>              <dbl>           <dbl>          <dbl>  <dbl>  <dbl>
##  1 Jan    2016             18914.          20617.        -1703.  20617. 18914.
##  2 Jan    2017             20596.          20617.          -20.6 20617. 20596.
##  3 Jan    2018             20836.          20617.          218.  20836. 20617.
##  4 Jan    2019             22123.          20617.         1505.  22123. 20617.
##  5 Jan    2020             22893.          20617.         2276.  22893. 20617.
##  6 Jan    2021             13218.          20617.        -7399.  20617. 13218.
##  7 Feb    2016             20608.          22049.        -1441.  22049. 20608.
##  8 Feb    2017             22091.          22049.           42.1 22091. 22049.
##  9 Feb    2018             20587.          22049.        -1462.  22049. 20587.
## 10 Feb    2019             24961.          22049.         2912.  24961. 22049.
## # ... with 58 more rows
…
